com/mapan/parking_lot/model/Parkings.class
com/mapan/parking_lot/ParkingLotApplication.class
com/mapan/parking_lot/dao/ParkingDAO.class
com/mapan/parking_lot/controller/ParkingController.class
com/mapan/parking_lot/model/Parking.class
com/mapan/parking_lot/controller/SortbyNo.class
