/Users/rhemaraisadamayanti/parking-lot/src/main/java/com/mapan/parking_lot/controller/ParkingController.java
/Users/rhemaraisadamayanti/parking-lot/src/main/java/com/mapan/parking_lot/ParkingLotApplication.java
/Users/rhemaraisadamayanti/parking-lot/src/main/java/com/mapan/parking_lot/dao/ParkingDAO.java
/Users/rhemaraisadamayanti/parking-lot/src/main/java/com/mapan/parking_lot/model/Parkings.java
/Users/rhemaraisadamayanti/parking-lot/src/main/java/com/mapan/parking_lot/model/Parking.java
